AUT0000:Inserire supervisore *** e segreto   ** o premere CORRETTORE per uscire         
CLR0000:Verificare il messaggio proposto        e premere uno dei tasti evidenziati     
INF0000:Verificare il messaggio proposto        e intraprendere le azioni appropriate   
LBS0000:Inserire uno dei numeri della lista     o utilizzare i tasti SU/GIU ed INVIO    
MNU0000:Premere uno dei tasti Dyankeys          o inserire il numero corretto           
MSG0000:Inserire uno dei numeri della lista     o utilizzare i tasti SU/GIU ed INVIO    
PLU0000:Premere il tasto CORRETTORE                                                     
POS0000:Inserire cod operatore *** e segreto ** o premere ABORT per uscire              
POS0001:Registrare un art. o un codice reparto  o selezionare una Funzione Preselect.   
POS0002:Registrare un art. o un codice reparto  o selezionare una Funzione Preselect    
POS0003:Registrare un art. o finalizzare        o selezionare una Funzione Preselect    
POS0004:Registrare un art. o premere CORRETTORE o selezionare una Funzione Preselect    
POS0005:Registrare un art. o premere TOTALE     o selezionare una Funzione Preselect    
POS0006:Registrare un altro articolo            o terminare con TOTALE o ABORT          
POS0007:Inserire importo Contanti o Tender      o premere CORRETTORE per continuare     
POS0008:Inserire importo Contanti o Tender                                              
POS0009:Applico sconto  ?  o continuo vendita                                           
POS0010:Inserire Ident-codice1 e premere Ident# o inserire importo                      
POS0011:Inserire Ident-codice2 e premere Ident# o inserire importo                      
POS0012:Inserire il prezzo di vendita                                                   
POS0013:L'articolo richiede inserimento prezzo  inserire il prezzo corretto             
POS0014:Inserire nuovo prezzo e registrare PLU                                          
POS0015:Inserire numero bonus                                                           
POS0016:Registrare l'articolo da tastiera       o passeolo sullo scanner                
POS0017:Registrare codice Set / Box da tastiera o passeolo sullo scanner                
POS0019:Inserire importo Contanti o Tender      o toggle inhouse ticket selection       
POS0020:Pagamento incompleto                    selezionare ulteriore forma di pagamento
POS0021:Inserire importo forma di pagamento     o confermare l'importo premendo INVIO   
POS0022:Inserire Assegno e premere CORRETTORE                                           
POS0023:Passare la carta magnetica nel lettore  o inserire il codice carta (chiave in S)
POS0024:Inserire codice slip                                                            
POS0025:Selezionare tipo pagamento                                                      
POS0026:Inserire codice ABI-CAB                                                         
POS0027:Selezionare tipo carta di credito                                               
POS0028:Stampa nota di credito?                 premere SLIP - oppure INVIO             
POS0029:Inserire importo valuta estera                                                  
POS0030:Inserire codice tessera                                                         
POS0031:Passare la carta magnetica nel lettore  o inserire il codice ABI-CAB            
POS0032:Inserire il codice ABI-CAB                                                      
POS0033:Inserire codice Assegno                                                         
POS0034:Per assegni EC premere INVIO            per altri assegni selezionare Tipo **   
POS0050:Inserire importo da ritirare            o selezionare tender                    
POS0070:Registare la tessera fedelta'           tramite scanner o lettore magnetico     
POS0080:Stesso terminale: inserire N. trans.    altro terminale:  N. terminale N. trans.
POS0081:Inserire tipo valuta estera                                                     
POS0082:Stesso terminale: inserire N. trans.    altro terminale:  N. terminale N. trans.
POS0083:Inserire la risposta                    o premere CORRETTORE per uscire         
POS0100:Inserire operatore *** e cod. segr. **                                          
POS0200:Inserire operatore *** e cod. segr. **                                          
POS0300:Registare la tessera Dipendente         o digitarne il codice                   
POS0301:Sovrascrivo Sconto? Inserire valore     Accettare sconto - premere INVIO        
POS0309:Sovrascrivo Sconto? Inserire valore     Accettare sconto - premere INVIO        
POS0400:Registare la tessera fedelta'           tramite scanner o lettore magnetico     
POS0401:Sovrascrivo Sconto? Inserire valore     Accettare sconto - premere INVIO        
POS0500:Selezionare Codice RoA o PdO                                                    
POS0502:Selezionare tipo   RoA o PdO                                                    
POS0503:Inserire codice slip                                                            
POS0504:Inserire importo                                                                
POS0505:Sconto ? o successivo RoA / Paid Out    o finalizzare con totale e tender       
POS0506:Successivo RoA / Paid Out               o selezionare funzioni Preselect        
POS0507:Inserire importo Contanti oppure        premere CORRETTORE per continuare       
POS0700:Inserire codice terminale off-line  ***                                         
POS0800:Il terminale e' attualmente in pausa    Inserire codice operatore e cod. segreto
POS0900:Inserire q.ta'/importo - usare SU/GIU   usare tasto Q.TA' o premere TOTALE      
POS0901:Inserire q.ta'/importo - usare SU/GIU   usare tasto Q.TA' o premere TOTALE      
POS0902:Inserire importo                                                                
POS0903:Inserire q.ta'/importo                  o premere CORRETTORE per continuare     
POS0905:Inserire importo                        o premere CORRETTORE per continuare     
POS2900:Registrare art. o inserire codice PLU   new prezzo?INVIO stampa?SLIP fine?TOTALE
POS2901:Prezzo Corretto ? INVIO                 Prezzo non coretto - inserire prezzo    
POS4001:Registrare un art. o un codice reparto  o selezionare una Funzione Preselect.   
POS4003:Registrare un art., terminare scontrino o selezionare una Funzione Preselect.   
POS4004:Registrare articolo                     o inserire quantita' e registare art.   
POS4005:Registrare articolo o premere Totale    o selezionare funzioni Preselect        
POS4010:Inserire Ident-codice1 e premere Ident#                                         
POS4012:Inserire prezzo                                                                 
POS4014:Inserire nuovo prezzo e premere INVIO                                           
POS4400:Inserire data di vendita                                                        
POS4500:Inserire scaffale / codice inventario                                           
POS4600:Inserire codice negozio provenienza                                             
POS4700:Inserire codice slip                                                            
POS7500:Inserire nuovo codice reparto           premere tasto desiderato, quindi TOTALE 
POS8001:Premere FUNZIONI AMMINISTRATIVE         oppure FUNZIONI CASSIERE                
POS8002:Inserire Codice Cassiere ***                                                    
POS8025:Inserire Codice Commesso                                                        
POS8026:Selezionare Codice Reparto                                                      
POS9800:Inserire il codice del terminale        da escludere dal Fine Giornata          
POS9900:Inserire codice Cassiere/Superv.    *** e codice segreto **                     
POS9910:Start Fine Giorno - inserire AC 99 -    premere INVIO oppure ABORT per annullare
POS9930:Per stampare piu reports - inserire     codice report #                         
POS9931:Inserire codice cassiere ***                                                    
SEL0000:Premere INVIO per selez.re tutti term.  o  N. terminale #(3) o gruppo #(2)      
WGH0000:Inserire manualmente il peso            o premere CORRETTORE per annullare      
