CCHK :NCRs GREAT DEALER 97   86156 AUGSBURG   
CCPY :VALIDO SOLO SE ACCOMPAGNATO DA ORIGINALE
CCSH0:0000050000001000000020000000500000000000
CDIR0:0000000000000000000000000000000000000000
CDIR1:02140251022202110232                    
CDSC :0000010001500200025003000350040004500500
CEOC :VA20VA19VA23VA24VA25VA26                
CEOD :VA19VA23VA24VA25VA26                    
CHDR0:****************************************
CHDR1:                                        
CHDR2:>    ARS JAVA DEMO                      
CHDR3:                                        
CHDR4:****************************************
CIHT :DOCUMENTO PER USO INTERNO               
CINQ :Op. Dis Iva Mm/T  Unit/Pac   Coll   Rep.
CMNT :LAN Plu Maintenance I00000 V00000 C00000
CMNY0:3601020304050607080930313200000001010000
CMSG0:  Benvenuti ai Supermercati  ARS  JAVA  
CMSG1:  Benvenuti ai Supermercati  ARS  JAVA  
CMSG2:  Benvenuti ai Supermercati  ARS  JAVA  
COPT :0000100000001100900300004500002001000000
CSLP0:00L0535 03L0535 04L0535 05:0535 06:0535 
CSLP1:46:0160*47L0535*57L0535 00:0000 00:0000 
CSPC0:                                        
CSPC1:                                        
CSPC2:.................................... ...
CSPC3:    MERCE RICEVUTA    -    FIRMA        
CTLR0:**** ****/***/***   dd.mm.yy hh:mm AC-**
CTLR1:dd.mm.yy hh:mm                          
CTND0:000A121A011A011A011A011A000A011I000A000A
CTND1:001A001A011A001A001A000A011I001A001A001A
CTND2:001A001A001A001A001A001A001A001A000A001A
CTND3:001A001A001A001A001A001A001A001A010A001A
DKEY0: CONFERMA   CORRETT.  ABORT     SCELTA  
DLIT0: OFF-LINE POWER LOSS SU DOCUM.  VIDIMA  
DLIT1:SUPERVIS.  *AUTORE*    STORNO   RESO    
DLIT2:Impieg.  %Cliente  % Sovrappr.  Resume  
DLIT3:Extra POS Commiss.   Sovrascr. < CORR. >
DNBR0:...Zero*...*Uno*...*Due*...Tre..Quattro*
DNBR1:.Cinque*...*Sei*...Sette..Otto...Nove*  
DNOM0:000000011   Cent.   000000022   Cent.   
DNOM1:000000055   Cent.   0000001010  Cent.   
DNOM2:0000002020  Cent.   0000005050  Cent.   
DNOM3:000001001   Euro    000002002   Euro    
DNOM4:00050000500 Euro    00020000200 Euro    
DNOM5:00010000100 Euro    0000500050  Euro    
DNOM6:0000200020  Euro    0000100010  Euro    
DNOM7:000005005   Euro    00000000............
DNOM8:00000000............00000000............
DNOM9:00000000............00000000............
DVRS0:Versione EXE .......Versione ORG .......
DVRS1:Vers. Bilancia .....CRC Bilancia .......
DYKY0:0000000000000000000000000000000000000000
DYKY1:A2A804F1F2F3F4F8000000000000000000000000
DYKY2:0102B911180A0F07000000000000000000000000
DYKY3:D1D2D3D4D5D6D7D8000000000000000000000000
DYKY4:C1C2C3C4C53D8081000000000000000000000000
DYKY5:B900000000001112000000000000000000000000
DYKY6:8182838485868788000000000000000000000000
DYKY7:8182838485868788000000000000000000000000
DYKY8:0000000000000000000000000000000000000000
DYKY9:0000000000000000000000000000000000000000
DYKYA:0000000000000000000000000000000000000000
DYKYB:E200E30000000000000000000000000000000000
DYKYC:EAEBECEDEEEF9182000000000000000000000000
DYKYD:9293000000000000000000000000000000000000
DYKYE:0000000000000000000000000000000000000000
DYKYF:0000000000000000000000000000000000000000
DYTX0:0000000000000000000000000000000000000000
DYTX1:M21M27K05M03M19M43M51M500000000000000000
DYTX2:M73M74M52M75K23K02M76M480000000000000000
DYTX3:D01D02D03D04D05D06D07D080000000000000000
DYTX4:C01C02C03C04C05M61M80M810000000000000000
DYTX5:M52000000000000000M78M790000000000000000
DYTX6:0000000000000000000000000000000000000000
DYTX7:0000000000000000000000000000000000000000
DYTX8:0000000000000000000000000000000000000000
DYTX9:0000000000000000000000000000000000000000
DYTXA:0000000000000000000000000000000000000000
DYTXB:T02000T030000000000000000000000000000000
DYTXC:T31T32T33T34T35T36T37M820000000000000000
DYTXD:T38T390000000000000000000000000000000000
DYTXE:0000000000000000000000000000000000000000
DYTXF:0000000000000000000000000000000000000000
EANX0:P$0:   20?????-----%P$0:   21?????-----%
EANX1:P$0:   22?????-----%P$0:   23?????-----%
EANX2:P$0:   24?????-----%P$0:   25?????-----%
EANX3:P$0:   26?????-----%P$0:   27?????-----%
EANX4:P$0:   28?????-----%P$0:   29?????-----%
EANX5:P$0:    2?sss?-----%P$0:   02?sss?-----%
EANX6:C 0:   04701NNNNNNN%C 0:   04702NNNNNNN%
EANX7:C 0:   04703NNNNNNN%  :                 
EANX8:F 0:       9NNNNNNN%F 0:       0NNNNNNN%
EANXD:UA1:     ???????????UE1:         0??????
EANXE:S 1:   0???????????%S 4:    0000???????%
EANXF:   :                ZE4:        0??????%
EPTS0:0001000000000000000000000000000000000000
FKEY0:0000000000000000E2000000000D0000:asci 0x
FKEY1:00000000000000000000000B00000000:asci 1x
FKEY2:E400B7000000000000001F0501E03A1B:asci 2x
FKEY3:303132333435363738398F0000000000:asci 3x
FKEY4:00000000000000000000000000000000:asci 4x
FKEY5:000000000000000000000000BA000002:asci 5x
FKEY6:001BA2A28E8DD5D1F5FDA8F0B4D6D2B9:asci 6x
FKEY7:A80B10B419D3B9D911DEDF0000000000:asci 7x
FKEY8:00000000000000000000000000000000:asci 8x
FKEY9:00000000000000000000000000000000:asci 9x
FKEYA:00000000000000000000000000000000:scan 2x
FKEYB:0000000000000000000000E1E2E3C4E1:scan 3x
FKEYC:E7E10018190000000000000000000000:scan 4x
FKEYD:00000000102700D4D8DADBDC00000000:scan 5x
FKEYE:00000000000000000000000000000000:scan 6x
FKEYF:00000000000000000000000000000000:scan 7x
FSOP :0602000000000000000000000000000000000000
GIGA0:0000000200000000000100010001000000000000
GIGA1:1100110000000000000000000000000000000000
HELP :< CORRETTORE >=FINE   < AIUTO >=CONTINUA
IBKC0:2552552552042552550000000000000000000000
IBKC1:2552552552552551450000000000000000000000
IBKC2:2552552552470460190000000000000000000000
INDI0:0000000000000000000000000000000000000000
ITOP0:0000000200000000020200000000000101010400
ITOP1:1001020100001101000100000000000001010101
ITOP2:0000000000000000050001010101000011000201
ITOP3:0100000000000001010000010100000009990100
ITOP4:0000000000000000000000000000000000000000
ITOP5:0000000000000000000000000000000000000000
ITTN0:0000001000000001000000000000000000000000
ITTN1:0000000000000000000000000000000000000000
ITTN2:0000000000000000000000000000000000000000
ITTN3:0000000000000000000000000000000000000000
MSRX0: 63417400???????????                    
NEWS :< CORRETTORE >=FINE   < AIUTO >=CONTINUA
NOTE0:CANCELLA MESSAGGIO RICEVUTO  /  CONTINUA
NOTE1:*** NESSUN NUOVO MESSAGGIO RICEVUTO *** 
NOTE2:....................................... 
NREG : 000 800 800 800 800 800 800 800 800 800
PRE11:0000:                :[Rp16-Fsc71      ]
PRE12:0000:                :[Rp17-           ]
PRE13:0000:                :[Rp18-           ]
PRE14:0000:                :[Rp19-           ]
PRE15:0000:                :[Rp20-           ]
PRE16:0000:                :[Rp21-           ]
PRE17:0000:                :[Rp22-           ]
PRE18:0000:                :[Rp23-           ]
PRE19:0000:                :[Rp24-Fsc=79     ]
PRE1A:0000:                :[Rp25-Fsc=7A     ]
PRE1B:0000:                :[Rp26-Fsc=7B     ]
PRE1C:0000:                :[Rp27-Fsc=7C     ]
PRE1D:0000:                :[Rp28-Fsc=7D     ]
PRE1E:0000:                :[Rp29-Fsc=7E     ]
PRE1F:0000:                :[Rp30-Fsc=7F     ]
PRES1:0000:            9994:[Rp1 Periodici   ]
PRES2:0000:            9993:[Rp2 Quotidiani  ]
PRES3:0000:            9961:[Rp3 Libri       ]
PRES4:LIST:            *010:[Promo KAPPA     ]
PRES5:LIST:            *001:[TIM             ]
PRES6:LIST:            *002:[WIND            ]
PRES7:LIST:            *003:[VODAFONE        ]
PRES8:LIST:            *004:[H3G             ]
PRES9:LIST:            *008:[Ottica Iva 4%   ]
PRESA:LIST:            *005:[Carte TV        ]
PRESB:LIST:            *006:[Gratta&Vinci    ]
PRESC:LIST:            *007:[Promozione      ]
PRESD:LIST:            *009:[Ottica Iva 20%  ]
PRESE:0000:                :[SacchettoPiccolo]
PRESF:0000:   8023418000693:[SacchettoGrande ]
TARE0:0000001000200025000000000000000000000000
TEXS :100:0/4 103:4/4 104:8/4 000:C/4 000:0/0 
GPE00:0000000000000000000000000000000000000000
UPB01:9900020100000000000100010000000000000000
UPBD0:0000000000000000000000000000000000000000
UPBD1:0000000000000000000000000000000000000000
UPBI0:8023797217705                           
SPSM0:0110000000000000000000000000000000000000
TICK0:0100500301000000000000000000000000000000
TICT0:0110000000020000000003000000000400000000
CBAK0:01010101 992SSLCCCCCC% 992SSLRRCCCC%0000
VERS0:0000020101000000000000000000000000000000
CLEG0:                                        
CLEG1: <NP> = No Punti                        
CLEG2: <NS> = No Sconti                       
CLEG3: <N>   = No Sconti e Punti              
CLEG4:                                        
DPTE0:0000000000000000000000000000000000000000
MAXQ0:0000000000000000000000000000000000000000
