AUT0000:Enter supervisor *** and secret # **    or press the Clear key to exit          
CLR0000:Inspect the info message below          and press one of the keys being shown   
INF0000:Inspect the info message below          and take the appropriate action         
LBS0000:Enter a number from the list            or use the selection keys and ENTER     
MNU0000:Press one of the dynakeys               or enter the appropriate number         
MSG0000:Enter a number from the list            or use selection keys and press ENTER   
PLU0000:Press the Clear key to escape                                                   
POS0000:Enter operator *** and secret number ** or press the Abort key to exit          
POS0001:Scan an item or enter department number or look at Preselect Functions          
POS0002:Scan an item or enter department number or make another Preselection            
POS0003:Ring an item or finish transaction      or look at Preselect Functions          
POS0004:Ring an item or reset by Clear key      or make another Preselection            
POS0005:Ring another item or press Total        or look at Special Functions            
POS0006:Ring another item                       or finish with Total or Abort key       
POS0007:Enter cash amount or select a tender    or press the Clear key to resume sales  
POS0008:Enter cash amount or select a tender                                            
POS0009:Discount ?    or continue sale                                                  
POS0010:Enter Ident-number 1 and press Ident.#  or enter amount                         
POS0011:Enter Ident-number 2 and press Ident.#  or enter amount                         
POS0012:Enter the price of the item                                                     
POS0013:This item requires price entry          enter the correct price                 
POS0014:Enter new price and scan item                                                   
POS0015:Enter bonus number                                                              
POS0016:Scan item or enter the PLU number                                               
POS0017:Scan or enter Set / Box number                                                  
POS0019:Enter cash amount or select a tender    or toggle inhouse ticket selection      
POS0020:Payment is incomplete                   select tender type                      
POS0021:Enter tendered amount                   or confirm amount by ENTER key          
POS0022:Insert check and press CLEAR                                                    
POS0023:Swipe credit card                       or enter the number (key to 'S')        
POS0024:Enter slip number                                                               
POS0025:Select charge type                                                              
POS0026:Enter Bank account number                                                       
POS0027:Select credit card type                                                         
POS0028:Do you want to print the credit note?   press SLIP - otherwise ENTER            
POS0029:Enter foreign amount                                                            
POS0030:Enter card number                                                               
POS0031:Swipe Bank card                         or enter Bank account number            
POS0032:Enter Bank routing number                                                       
POS0033:Enter check number                                                              
POS0034:For EC check press ENTER                for other checks enter Type **          
POS0050:Enter amount to withdraw                or select tender                        
POS0070:Swipe or scan the loyality card         or enter the number                     
POS0080:Same terminal: enter transaction #      other terminal: enter term.# and trans.#
POS0081:Enter foreign currency type                                                     
POS0082:Same terminal: enter transaction #      other terminal: enter term.# and trans.#
POS0083:Enter the answer to the query           or press CLEAR to escape                
POS0100:Enter operator *** and secret number **                                         
POS0200:Enter operator *** and secret number **                                         
POS0300:Swipe or scan the employee card         or enter the number                     
POS0301:Override discount? - enter new rate     accept discount - press ENTER           
POS0309:Override discount? - enter new rate     accept discount - press ENTER           
POS0400:Swipe or scan the loyality card         or enter the number                     
POS0401:Override discount? - enter new rate     accept discount - press ENTER           
POS0500:Select RoA or PdO number                                                        
POS0502:Select type of RoA or PdO                                                       
POS0503:Enter slip number                                                               
POS0504:Enter amount                                                                    
POS0505:Discount?   or next RoA / Paid Out      or finalize with total and tender       
POS0506:next Received on Account / Paid Out     or look at Preselect Function           
POS0507:Enter cash amount or select a tender    or press Clear key to resume            
POS0700:Enter off-line terminal number ***                                              
POS0800:The terminal is temporarily locked.     Sign-in is required.                    
POS0900:Enter qty/amount - use arrows to step   use FOR(/)key or finish with TOTAL      
POS0901:Enter qty/amount - use arrows to step   use FOR(/)key or finish with TOTAL      
POS0902:Enter amount                                                                    
POS0903:Enter count/amount                      or press CLEAR key to return            
POS0905:Enter amount                            or press CLEAR key to return            
POS2900:Scan item or enter PLU number           new price? ENTER print? SLIP end? TOTAL 
POS2901:Price correct? ENTER                    Price not correct - enter price         
POS4001:Scan an item or enter department number or look at Preselect Functions          
POS4003:Ring an item or finish transaction      or look at Preselect Functions          
POS4004:Scan item                               or enter quantity and scan item         
POS4005:Ring another item or press Total        or look at Special Functions            
POS4010:Enter Ident.# 1 press IDENT.#                                                   
POS4012:Enter price                                                                     
POS4014:Enter the new price and press ENTER                                             
POS4400:Enter the sales data                                                            
POS4500:Enter the shelf /inventory sheet number                                         
POS4600:Enter the number of the sending store                                           
POS4700:Enter the number of the slip                                                    
POS7500:Enter the new department number         press desired key, terminate with TOTAL 
POS8001:Press ADMIN or REGISTER FUNCTIONS                                               
POS8002:Enter Checker number ***                                                        
POS8025:Enter Sales person number                                                       
POS8026:Select Department number                                                        
POS9800:Enter the number of the terminal which  is to be excluded from EOD              
POS9900:Enter your checker/supervisor *** and   secret number **                        
POS9910:Start of EoD - enter AC 99 - press ENTERTRANS.ABORT will cancel this step       
POS9930:To print more reports - enter report #                                          
POS9931:Enter the checker number ***                                                    
SEL0000:Press Enter to select all terminals     or enter a terminal#(3) or group#(2)    
WGH0000:Enter the weight manually               or press the Clear key to go back       
