00D0013020010002SCO 21c TUT                             005                           2014091820141231000000235900111111100000000010001
00I0013020010002SC 21c TUT                              005                           2014091820141231000000235900111111100000000010002
010013020010100000000000000210000000000000SC 21c TUT                              00:SCO                         0000000000000000000000
020013020010001           2100000000000000000000000000000000000000000000000000000000000000000000000000000000000000000000000000000000000
020013020010002800000000021700000000000000000000000000000000000000000000000000000000000000000000000000000000000000000000000000000000000
00D0013020020002SCO 22c CLI+EMP                         005                           2014091820141231000000235900111111130000000010001
00I0013020020002SC 22c CLI+EMP                          005                           2014091820141231000000235900111111130000000010003
010013020020100000000000000220000000000000SCO 22c CLI+EMP                         00:SCO                         0000000000000000000000
020013020020001           2200000000000000000000000000000000000000000000000000000000000000000000000000000000000000000000000000000000000
020013020020002800000000002600000000000000000000000000000000000000000000000000000000000000000000000000000000000000000000000000000000000
020013020020003800000000006400000000000000000000000000000000000000000000000000000000000000000000000000000000000000000000000000000000000
00D0013020030002SCO 23c SOLOEMP                         005                           2014091820141231000000235900111111120000000010001
00I0013020030002SC 23c SOLOEMP                          005                           2014091820141231000000235900111111120000000010001
010013020030100000000000000230000000000000SCO 23c SOLOEMP                         00:SCO                         0000000000000000000000
020013020030001           2300000000000000000000000000000000000000000000000000000000000000000000000000000000000000000000000000000000000
00D0013020040002SCO 24c SOLOCLI                         005                           2014091820141231000000235900111111110000000010001
00I0013020040002SC 24c SOLOCLI                          005                           2014091820141231000000235900111111110000000010001
010013020040100000000000000240000000000000SCO 24c SOLOCLI                         00:SCO                         0000000000000000000000
020013020040001           2400000000000000000000000000000000000000000000000000000000000000000000000000000000000000000000000000000000000
00D0013020050002SCO 25c CLI-CAT2                        005                           2014091820141130000000235900111111140000200010001
00I0013020050002SC 25c CLI-CAT2                         005                           2014091820141130000000235900111111140000200010001
010013020050100000000000000250000000000000SCO 25c CLE-CAT2                        00:SCO                         0000000000000000000000
020013020050001           2500000000000000000000000000000000000000000000000000000000000000000000000000000000000000000000000000000000000
00D0013020060002SCO 26c EMP-CAT3                        005                           2014091820141231000000235900111111150000300010001
00I0013020060002SC 26c EMP-CAT3                         005                           2014091820141231000000235900111111150000300010001
010013020060100000000000000260000000000000SCO 26c EMP-CAT3                        00:SCO                         0000000000000000000000
020013020060001           2600000000000000000000000000000000000000000000000000000000000000000000000000000000000000000000000000000000000
00D0013020070002SCO 27c CLI+EMP-CAT5                    005                           2014091820141231000000235900111111160000500010001
00I0013020070002SC 27c CLI+EMP-CAT5                     005                           2014091820141231000000235900111111160000500010001
010013020070100000000000000270000000000000SCO 27c CLI+EMP-CAT5                    00:SCO                         0000000000000000000000
020013020070001           2700000000000000000000000000000000000000000000000000000000000000000000000000000000000000000000000000000000000
00D0013020080002SCO 28c NO-TESSERA                      005                           2014091820141231000000235900111111170000000010001
00I0013020080002SC 28c NO-TESSERA                       005                           2014091820141231000000235900111111170000000010001
010013020080100000000000000280000000000000SCO 28c NO-TESSERA                      00:SCO                         0000000000000000000000
020013020080001           2800000000000000000000000000000000000000000000000000000000000000000000000000000000000000000000000000000000000
