<?xml version="1.0" encoding="UTF-8"?>
<session version="1.0">
<refactoring comment="Copy element &apos;LoginServiceImplementation.java&apos; to &apos;WebFrontBaseDbTest/src/com.ncr.webfront.base.plugins.dbtest.entities&apos;&#x0D;&#x0A;- Original project: &apos;WebFrontBaseLoginServicePlugin&apos;&#x0D;&#x0A;- Destination element: &apos;WebFrontBaseDbTest/src/com.ncr.webfront.base.plugins.dbtest.entities&apos;&#x0D;&#x0A;- Original element: &apos;com.ncr.webfront.base.plugins.login.LoginServiceImplementation.java&apos;" description="Copy compilation unit" destination="=WebFrontBaseDbTest/src&lt;com.ncr.webfront.base.plugins.dbtest.entities" element1="/src&lt;com.ncr.webfront.base.plugins.login{LoginServiceImplementation.java" files="0" flags="589830" folders="0" id="org.eclipse.jdt.ui.copy" policy="org.eclipse.jdt.ui.copyResources" stamp="1538826161897" units="1" version="1.0"/>
</session>